<?xml version="1.0" encoding="UTF-8" standalone="no"?> <svg xmlns="http://www.w3.org/2000/svg" xmlns:xlink="http://www.w3.org/1999/xlink" width="416pt" height="307pt" viewBox="0.00 0.00 416.00 306.90">
<g id="graph0" class="graph" transform="scale(1 1) rotate(0) translate(4 302.9)">
<title>%0</title>
<polygon fill="#ffffff" stroke="transparent" points="-4,4 -4,-302.9 412,-302.9 412,4 -4,4"></polygon>
<g id="clust1" class="cluster">
<title>cluster</title>
<polygon fill="#234178" fill-opacity="0.184314" stroke="#000000" points="8,-8 8,-290.9 400,-290.9 400,-8 8,-8"></polygon>
<text text-anchor="middle" x="204" y="-274.3" font-family="Times,serif" font-size="14.00" fill="#000000">Global</text>
</g>
<g id="clust3" class="cluster">
<title>cluster_2</title>
<polygon fill="#234178" fill-opacity="0.184314" stroke="#000000" points="80,-181.3 80,-258.1 392,-258.1 392,-181.3 80,-181.3"></polygon>
<text text-anchor="middle" x="236" y="-241.5" font-family="Times,serif" font-size="14.00" fill="#000000">CellType[amoeba]</text>
</g>
<!-- Gnuplotter_0_5 -->
<g id="node2" class="node">
<title>Gnuplotter_0_5</title>
<g id="a_node2">">
<polygon fill="#fffea3" stroke="transparent" points="385,-66 313,-66 313,-16 385,-16 385,-66"></polygon>
<text text-anchor="start" x="316.507" y="-48.5" font-family="times" font-size="15.00" fill="#000000">Gnuplotter</text>
<text text-anchor="start" x="345.25" y="-24.5" font-family="times" font-size="15.00" fill="#000000">5</text>
<polygon fill="#000000" stroke="#000000" points="313,-41 313,-41 385,-41 385,-41 313,-41"></polygon>
<polygon fill="none" stroke="#000000" points="313,-16 313,-66 385,-66 385,-16 313,-16"></polygon>
</g>
</g>
<!-- CPM_0_0_5 -->
<g id="node1" class="node">
<title>CPM_0_0_5</title>
<g id="a_node1">
<polygon fill="#fffea3" stroke="#000000" points="16,-182.5 16,-232.1 70,-232.1 70,-182.5 16,-182.5"></polygon>
<text text-anchor="middle" x="42.7819" y="-215.5" font-family="Times,serif" font-size="14.00" fill="#000000">CPM</text>
<polyline fill="none" stroke="#000000" points="16,-207.3 69.5638,-207.3 "></polyline>
<text text-anchor="middle" x="42.7819" y="-190.7" font-family="Times,serif" font-size="14.00" fill="#000000">0.5</text>
</g>
</g>
<!-- cell_center_0 -->
<g id="node3" class="node">
<title>cell_center_0</title>
<ellipse fill="#b5b426" stroke="#000000" cx="84" cy="-124" rx="50.9588" ry="18"></ellipse>
<ellipse fill="none" stroke="#000000" cx="84" cy="-124" rx="54.9572" ry="22"></ellipse>
<text text-anchor="middle" x="84" y="-119.8" font-family="Times,serif" font-size="14.00" fill="#000000">cell.center</text>
</g>
<!-- CPM_0_0_5&#45;&gt;cell_center_0 -->
<g id="edge1" class="edge">
<title>CPM_0_0_5-&gt;cell_center_0</title>
<path fill="none" stroke="#8f100d" stroke-width="3" d="M55.3014,-182.3073C59.5729,-173.6287 64.4131,-163.7949 68.8852,-154.7089"></path>
<polygon fill="#8f100d" stroke="#8f100d" stroke-width="3" points="72.0973,-156.1084 73.3732,-145.5906 65.8168,-153.0171 72.0973,-156.1084"></polygon>
</g>
<!-- cell_type_0 -->
<g id="node5" class="node">
<title>cell_type_0</title>
<ellipse fill="#d3d247" stroke="#000000" cx="231" cy="-124" rx="44.0361" ry="18"></ellipse>
<ellipse fill="none" stroke="#000000" cx="231" cy="-124" rx="48.0377" ry="22"></ellipse>
<text text-anchor="middle" x="231" y="-119.8" font-family="Times,serif" font-size="14.00" fill="#000000">cell.type</text>
</g>
<!-- CPM_0_0_5&#45;&gt;cell_type_0 -->
<g id="edge2" class="edge">
<title>CPM_0_0_5-&gt;cell_type_0</title>
<path fill="none" stroke="#8f100d" stroke-width="3" d="M70.2835,-184.7881C72.1764,-183.5454 74.0911,-182.3695 76,-181.3 108.8607,-162.8888 148.784,-148.2911 179.8827,-138.4379"></path>
<polygon fill="#8f100d" stroke="#8f100d" stroke-width="3" points="181.1364,-141.7136 189.6495,-135.4066 179.0614,-135.0281 181.1364,-141.7136"></polygon>
</g>
<!-- cell_id_0 -->
<g id="node4" class="node">
<title>cell_id_0</title>
<ellipse fill="#d3d247" stroke="#000000" cx="349" cy="-124" rx="34.8174" ry="18"></ellipse>
<ellipse fill="none" stroke="#000000" cx="349" cy="-124" rx="38.8075" ry="22"></ellipse>
<text text-anchor="middle" x="349" y="-119.8" font-family="Times,serif" font-size="14.00" fill="#000000">cell.id</text>
</g>
<!-- cell_id_0&#45;&gt;Gnuplotter_0_5 -->
<g id="edge4" class="edge">
<title>cell_id_0-&gt;Gnuplotter_0_5</title>
<path fill="none" stroke="#112c5f" stroke-width="2" d="M349,-101.7575C349,-93.974 349,-85.0292 349,-76.4385"></path>
<polygon fill="#112c5f" stroke="#112c5f" stroke-width="2" points="352.5001,-76.2372 349,-66.2373 345.5001,-76.2373 352.5001,-76.2372"></polygon>
</g>
<!-- cell_center_2 -->
<g id="node6" class="node">
<title>cell_center_2</title>
<ellipse fill="#b5b426" stroke="#000000" cx="139" cy="-207.3" rx="50.9572" ry="18"></ellipse>
<text text-anchor="middle" x="139" y="-203.1" font-family="Times,serif" font-size="14.00" fill="#000000">cell.center</text>
</g>
<!-- cell_center_2&#45;&gt;cell_center_0 -->
<g id="edge3" class="edge">
<title>cell_center_2-&gt;cell_center_0</title>
<path fill="none" stroke="#38568c" stroke-dasharray="5,2" d="M127.3359,-189.6342C118.8221,-176.7396 107.2363,-159.1925 98.1862,-145.4857"></path>
</g>
<!-- cell_id_2 -->
<g id="node7" class="node">
<title>cell_id_2</title>
<ellipse fill="#d3d247" stroke="#000000" cx="349" cy="-207.3" rx="34.8076" ry="18"></ellipse>
<text text-anchor="middle" x="349" y="-203.1" font-family="Times,serif" font-size="14.00" fill="#000000">cell.id</text>
</g>
<!-- cell_id_2&#45;&gt;cell_id_0 -->
<g id="edge5" class="edge">
<title>cell_id_2-&gt;cell_id_0</title>
<path fill="none" stroke="#38568c" stroke-dasharray="5,2" d="M349,-189.2251C349,-176.5927 349,-159.6462 349,-146.1929"></path>
</g>
<!-- cell_type_2 -->
<g id="node8" class="node">
<title>cell_type_2</title>
<g id="a_node8">
<ellipse fill="#d3d247" stroke="#000000" cx="252" cy="-207.3" rx="44.0377" ry="18"></ellipse>
<text text-anchor="middle" x="252" y="-203.1" font-family="Times,serif" font-size="14.00" fill="#000000">cell.type</text>
</g>
</g>
<!-- cell_type_2&#45;&gt;cell_type_0 -->
<g id="edge6" class="edge">
<title>cell_type_2-&gt;cell_type_0</title>
<path fill="none" stroke="#38568c" stroke-dasharray="5,2" d="M247.4433,-189.2251C244.2345,-176.497 239.9216,-159.3891 236.5179,-145.8878"></path>
</g>
</g>
</svg>